[GWPH]
!Solute	Dist	Min	Max	Mean	Sd
Br	U	-1.907806	-0.710617	-1.724953	0.239085
Ca	U	-2.486209	1.222137	-0.713633	1.021473
Cl	U	-1.824878	-0.707461	-1.730537	0.224417
Na	U	-1.913470	-0.606393	-1.767776	0.263387
SO4	U	-2.551716	4.153682	-0.302410	2.047661
Sr	U	-3.718594	-1.061706	-2.148247	0.799121
B	U	-2.571849	3.184988	-0.214655	1.433620
[GWDB]
!Solute	Dist	Min	Max	Mean	Sd
Br	U	-1.825860	-0.753196	-1.376756	0.274287
Ca	U	-4.244548	0.409635	-2.228847	1.552016
Cl	U	-1.697034	-0.801894	-1.441502	0.205464
Na	U	-1.547610	-0.722780	-1.259594	0.220422
SO4	U	-3.879633	4.489342	-1.014466	3.019112
Sr	U	-2.349995	1.648722	-0.559775	1.244933
B	U	3.207878	12.798790	7.749255	2.923422
[GWAQD]
!Solute	Dist	Min	Max	Mean	Sd
Br	U	3.907722	4.707722	4.307722	0.430772
Ca	U	1.242971	3.097144	2.086724	0.792126
Cl	U	3.886365	4.984770	4.408792	0.484680
Na	U	4.008605	4.767651	4.362827	0.343207
SO4	U	-2.786336	-2.017536	-2.399305	0.339470
Sr	U	2.606818	3.166818	2.886818	0.288682
B	U	1.866382	2.366382	2.166382	0.216638
[INLET]
!Solute	Dist	Min	Max	Mean	Sd
Br	U	-1.904515	-1.373550	-1.803208	0.129803
Ca	U	-4.315382	-3.736213	-4.041032	0.167189
Cl	U	-1.724450	-1.656265	-1.694018	0.018467
Na	U	-1.781143	-1.704480	-1.739222	0.023854
SO4	U	-3.105051	-2.806874	-2.977100	0.106427
Sr	U	-3.260164	-2.855272	-3.055836	0.097638
B	U	-2.949534	-2.400174	-2.656255	0.128189
